{
    "users": [
        {
            "id": 0,
            "name": "jhon doe",
            "position": "System Architect",
            "office": "Edinburg",
            "age": 61,
            "start-date": "25/04/2020"
        },
        {
            "id": 1,
            "name": "jhoni",
            "position": "System Architect",
            "office": "Edinburg",
            "age": 61,
            "start-date": "25/04/2020"
        },
        {
            "id": 2,
            "name": "jhone",
            "position": "System Architect",
            "office": "Edinburg",
            "age": 61,
            "start-date": "25/04/2020"
        }
    ]
}